{
  "data": [
    {
      "id": 12706823,
      "type": "Attachment",
      "base_type": "Block",
      "title": "library-of-the-printed-web-no.-2.pdf",
      "content": null,
      "description": null,
      "image": {
        "src": "https://d2w9rnfcy7mm78.cloudfront.net/12706823/original_4fcd5bac3e35173320210801-4-wbrdw0.jpg?1627844283",
        "large": {
          "src": "https://images.are.na/eyJidWNrZXQiOiJhcmVuYV9pbWFnZXMiLCJrZXkiOiIxMjcwNjgyMy9vcmlnaW5hbF80ZmNkNWJhYzNlMzUxNzMzMjAyMTA4MDEtNC13YnJkdzAuanBnIiwiZWRpdHMiOnsicmVzaXplIjp7IndpZHRoIjoxODAwLCJoZWlnaHQiOjE4MDAsImZpdCI6Imluc2lkZSIsIndpdGhvdXRFbmxhcmdlbWVudCI6dHJ1ZX0sIndlYnAiOnsicXVhbGl0eSI6NzV9LCJqcGVnIjp7InF1YWxpdHkiOjc1fSwicm90YXRlIjpudWxsfX0=",
          "src_2x": "https://images.are.na/eyJidWNrZXQiOiJhcmVuYV9pbWFnZXMiLCJrZXkiOiIxMjcwNjgyMy9vcmlnaW5hbF80ZmNkNWJhYzNlMzUxNzMzMjAyMTA4MDEtNC13YnJkdzAuanBnIiwiZWRpdHMiOnsicmVzaXplIjp7IndpZHRoIjozNjAwLCJoZWlnaHQiOjM2MDAsImZpdCI6Imluc2lkZSIsIndpdGhvdXRFbmxhcmdlbWVudCI6dHJ1ZX0sIndlYnAiOnsicXVhbGl0eSI6NzV9LCJqcGVnIjp7InF1YWxpdHkiOjc1fSwicm90YXRlIjpudWxsfX0=",
          "width": 1391,
          "height": 1800
        },
        "medium": {
          "src": "https://images.are.na/eyJidWNrZXQiOiJhcmVuYV9pbWFnZXMiLCJrZXkiOiIxMjcwNjgyMy9vcmlnaW5hbF80ZmNkNWJhYzNlMzUxNzMzMjAyMTA4MDEtNC13YnJkdzAuanBnIiwiZWRpdHMiOnsicmVzaXplIjp7IndpZHRoIjoxMjAwLCJoZWlnaHQiOjEyMDAsImZpdCI6Imluc2lkZSIsIndpdGhvdXRFbmxhcmdlbWVudCI6dHJ1ZX0sIndlYnAiOnsicXVhbGl0eSI6NzV9LCJqcGVnIjp7InF1YWxpdHkiOjc1fSwicm90YXRlIjpudWxsfX0=",
          "src_2x": "https://images.are.na/eyJidWNrZXQiOiJhcmVuYV9pbWFnZXMiLCJrZXkiOiIxMjcwNjgyMy9vcmlnaW5hbF80ZmNkNWJhYzNlMzUxNzMzMjAyMTA4MDEtNC13YnJkdzAuanBnIiwiZWRpdHMiOnsicmVzaXplIjp7IndpZHRoIjoyNDAwLCJoZWlnaHQiOjI0MDAsImZpdCI6Imluc2lkZSIsIndpdGhvdXRFbmxhcmdlbWVudCI6dHJ1ZX0sIndlYnAiOnsicXVhbGl0eSI6NzV9LCJqcGVnIjp7InF1YWxpdHkiOjc1fSwicm90YXRlIjpudWxsfX0=",
          "width": 927,
          "height": 1200
        },
        "small": {
          "src": "https://images.are.na/eyJidWNrZXQiOiJhcmVuYV9pbWFnZXMiLCJrZXkiOiIxMjcwNjgyMy9vcmlnaW5hbF80ZmNkNWJhYzNlMzUxNzMzMjAyMTA4MDEtNC13YnJkdzAuanBnIiwiZWRpdHMiOnsicmVzaXplIjp7IndpZHRoIjo0MDAsImhlaWdodCI6NDAwLCJmaXQiOiJpbnNpZGUiLCJ3aXRob3V0RW5sYXJnZW1lbnQiOnRydWV9LCJ3ZWJwIjp7InF1YWxpdHkiOjc1fSwianBlZyI6eyJxdWFsaXR5Ijo3NX0sInJvdGF0ZSI6bnVsbH19",
          "src_2x": "https://images.are.na/eyJidWNrZXQiOiJhcmVuYV9pbWFnZXMiLCJrZXkiOiIxMjcwNjgyMy9vcmlnaW5hbF80ZmNkNWJhYzNlMzUxNzMzMjAyMTA4MDEtNC13YnJkdzAuanBnIiwiZWRpdHMiOnsicmVzaXplIjp7IndpZHRoIjo4MDAsImhlaWdodCI6ODAwLCJmaXQiOiJpbnNpZGUiLCJ3aXRob3V0RW5sYXJnZW1lbnQiOnRydWV9LCJ3ZWJwIjp7InF1YWxpdHkiOjc1fSwianBlZyI6eyJxdWFsaXR5Ijo3NX0sInJvdGF0ZSI6bnVsbH19",
          "width": 309,
          "height": 400
        },
        "square": {
          "src": "https://images.are.na/eyJidWNrZXQiOiJhcmVuYV9pbWFnZXMiLCJrZXkiOiIxMjcwNjgyMy9vcmlnaW5hbF80ZmNkNWJhYzNlMzUxNzMzMjAyMTA4MDEtNC13YnJkdzAuanBnIiwiZWRpdHMiOnsicmVzaXplIjp7IndpZHRoIjoxMjAwLCJoZWlnaHQiOjEyMDAsImZpdCI6Imluc2lkZSIsIndpdGhvdXRFbmxhcmdlbWVudCI6dHJ1ZX0sIndlYnAiOnsicXVhbGl0eSI6NzV9LCJqcGVnIjp7InF1YWxpdHkiOjc1fSwicm90YXRlIjpudWxsfX0=",
          "src_2x": "https://images.are.na/eyJidWNrZXQiOiJhcmVuYV9pbWFnZXMiLCJrZXkiOiIxMjcwNjgyMy9vcmlnaW5hbF80ZmNkNWJhYzNlMzUxNzMzMjAyMTA4MDEtNC13YnJkdzAuanBnIiwiZWRpdHMiOnsicmVzaXplIjp7IndpZHRoIjoyNDAwLCJoZWlnaHQiOjI0MDAsImZpdCI6Imluc2lkZSIsIndpdGhvdXRFbmxhcmdlbWVudCI6dHJ1ZX0sIndlYnAiOnsicXVhbGl0eSI6NzV9LCJqcGVnIjp7InF1YWxpdHkiOjc1fSwicm90YXRlIjpudWxsfX0=",
          "width": 927,
          "height": 1200
        },
        "content_type": "image/jpeg",
        "filename": "4fcd5bac3e35173320210801-4-wbrdw0.jpg"
      },
      "attachment": {
        "filename": "4dae0e12ddaef6f4f1df039774b7850e.pdf",
        "content_type": "application/pdf",
        "file_size": 14726017,
        "file_extension": "pdf",
        "updated_at": "2021-08-01T18:57:38Z",
        "url": "https://attachments.are.na/12706823/4dae0e12ddaef6f4f1df039774b7850e.pdf?1627844258"
      },
      "source": null,
      "user": {
        "id": 17346,
        "slug": "nly-human",
        "name": "\u25ccnly human"
      },
      "connection": {
        "id": 95345135,
        "position": 29,
        "pinned": false
      }
    }
  ],
  "meta": {
    "current_page": 2,
    "next_page": null,
    "prev_page": 1,
    "per_page": 4,
    "total_pages": 2,
    "total_count": 5,
    "has_more_pages": false
  }
}